Lab 7 - Multiple linear regression
…
Output means that reference level for species is Adelie and sex is female.

Check out lab6 for equatiomatic to get the equation output.

HOW TO INTERPRET: If everything else is constant, on average for every Chinstrap penguin, we expect the body mass to be 87.6 g smaller than an Adelie penguin.

If everything else is constant, on average male penguins are 530.4 g more than a female penguin.

body mass of male adelie penguin, 200 mm flippers = mass(g) = -365.82 + 20.02(200) + 530.38(1)

Use broom::augment() to see predicted values

augment(penguin_lm2)

## # A tibble: 333 x 11
##    .rownames body_mass_g flipper_length_mm species sex    .fitted .resid    .hat
##    <chr>           <int>             <int> <fct>   <fct>    <dbl>  <dbl>   <dbl>
##  1 1                3750               181 Adelie  male     3789.  -39.1 0.0244 
##  2 2                3800               186 Adelie  female   3359.  441.  0.00990
##  3 3                3250               195 Adelie  female   3539. -289.  0.0163 
##  4 5                3450               193 Adelie  female   3499.  -49.0 0.0136 
##  5 6                3650               190 Adelie  male     3969. -319.  0.0110 
##  6 7                3625               181 Adelie  female   3259.  366.  0.0128 
##  7 8                4675               195 Adelie  male     4069.  606.  0.0101 
##  8 13               3200               182 Adelie  female   3279.  -78.7 0.0119 
##  9 14               3800               191 Adelie  male     3989. -189.  0.0104 
## 10 15               4400               198 Adelie  male     4129.  271.  0.0117 
## # ... with 323 more rows, and 3 more variables: .sigma <dbl>, .cooksd <dbl>,
## #   .std.resid <dbl>
…
